<?xml version="1.0" encoding="UTF-8"?>
<svg xmlns="http://www.w3.org/2000/svg" xmlns:xlink="http://www.w3.org/1999/xlink" width="884.984375pt" height="956.8125pt" viewBox="0 0 884.984375 956.8125" version="1.1">
<defs>
<g>
<symbol overflow="visible" id="glyph0-0">
<path style="stroke:none;" d=""/>
</symbol>
<symbol overflow="visible" id="glyph0-1">
<path style="stroke:none;" d="M 50.171875 0 L 50.171875 -36.09375 C 48.390625 -37.375 47.109375 -39.171875 47.109375 -41.46875 C 47.109375 -44.796875 49.921875 -47.609375 53.25 -47.609375 C 56.578125 -47.609375 59.390625 -44.796875 59.390625 -41.46875 C 59.390625 -39.171875 58.109375 -37.375 56.3125 -36.09375 L 56.3125 0 L 108.546875 0 L 108.546875 -65.03125 L 92.15625 -81.40625 L 108.546875 -97.796875 L 108.546875 -153.59375 L 75.78125 -153.59375 L 57.34375 -107.015625 C 58.625 -105.21875 59.140625 -102.90625 58.109375 -100.859375 C 56.828125 -97.796875 53.25 -96.25 50.171875 -97.53125 C 47.109375 -98.8125 45.5625 -102.40625 46.84375 -105.46875 C 47.609375 -107.515625 49.40625 -108.796875 51.71875 -109.3125 L 69.375 -153.59375 L 6.140625 -153.59375 L 6.140625 0 Z M 49.40625 -103.171875 C 49.40625 -101.375 50.6875 -100.09375 52.484375 -100.09375 C 54.265625 -100.09375 55.546875 -101.375 55.546875 -103.171875 C 55.546875 -104.953125 54.265625 -106.234375 52.484375 -106.234375 C 50.6875 -106.234375 49.40625 -104.953125 49.40625 -103.171875 Z M 50.171875 -41.46875 C 50.171875 -39.6875 51.453125 -38.40625 53.25 -38.40625 C 55.046875 -38.40625 56.3125 -39.6875 56.3125 -41.46875 C 56.3125 -43.265625 55.046875 -44.546875 53.25 -44.546875 C 51.453125 -44.546875 50.171875 -43.265625 50.171875 -41.46875 Z M 50.171875 -41.46875 "/>
</symbol>
<symbol overflow="visible" id="glyph0-2">
<path style="stroke:none;" d="M 64.515625 -59.90625 C 66.296875 -58.625 67.578125 -56.828125 67.578125 -54.53125 C 67.578125 -51.203125 64.765625 -48.390625 61.4375 -48.390625 C 58.109375 -48.390625 55.296875 -51.203125 55.296875 -54.53125 C 55.296875 -56.828125 56.578125 -58.625 58.375 -59.90625 L 58.375 -97.03125 C 56.578125 -98.296875 55.296875 -100.09375 55.296875 -102.40625 C 55.296875 -105.734375 58.109375 -108.546875 61.4375 -108.546875 C 64.765625 -108.546875 67.578125 -105.734375 67.578125 -102.40625 C 67.578125 -100.09375 66.296875 -98.296875 64.515625 -97.03125 L 64.515625 -80.890625 L 116.734375 -80.890625 L 116.734375 -137.21875 L 100.359375 -153.59375 L 22.53125 -153.59375 L 6.140625 -137.21875 L 6.140625 -16.390625 L 22.53125 0 L 100.359375 0 L 116.734375 -16.390625 L 116.734375 -74.75 L 64.515625 -74.75 Z M 61.4375 -99.328125 C 63.234375 -99.328125 64.515625 -100.609375 64.515625 -102.40625 C 64.515625 -104.1875 63.234375 -105.46875 61.4375 -105.46875 C 59.640625 -105.46875 58.375 -104.1875 58.375 -102.40625 C 58.375 -100.609375 59.640625 -99.328125 61.4375 -99.328125 Z M 61.4375 -50.9375 C 63.484375 -50.9375 65.03125 -52.484375 65.03125 -54.53125 C 65.03125 -56.578125 63.484375 -58.109375 61.4375 -58.109375 C 59.390625 -58.109375 57.859375 -56.578125 57.859375 -54.53125 C 57.859375 -52.484375 59.390625 -50.9375 61.4375 -50.9375 Z M 61.4375 -50.9375 "/>
</symbol>
<symbol overflow="visible" id="glyph0-3">
<path style="stroke:none;" d="M 116.734375 0 L 116.734375 -56.0625 L 63.484375 -56.0625 C 62.203125 -54.015625 59.90625 -52.484375 57.34375 -52.484375 C 53.5 -52.484375 50.171875 -55.8125 50.171875 -59.640625 C 50.171875 -63.484375 53.5 -66.8125 57.34375 -66.8125 C 59.90625 -66.8125 62.203125 -65.28125 63.484375 -63.234375 L 100.359375 -63.234375 L 100.359375 -99.328125 L 62.71875 -99.328125 C 61.4375 -97.53125 59.640625 -96.25 57.34375 -96.25 C 54.015625 -96.25 51.203125 -99.078125 51.203125 -102.40625 C 51.203125 -105.734375 54.015625 -108.546875 57.34375 -108.546875 C 59.640625 -108.546875 61.4375 -107.265625 62.71875 -105.46875 L 108.546875 -105.46875 L 108.546875 -153.59375 L 6.140625 -153.59375 L 6.140625 0 Z M 57.34375 -99.328125 C 59.140625 -99.328125 60.421875 -100.609375 60.421875 -102.40625 C 60.421875 -104.1875 59.140625 -105.46875 57.34375 -105.46875 C 55.546875 -105.46875 54.265625 -104.1875 54.265625 -102.40625 C 54.265625 -100.609375 55.546875 -99.328125 57.34375 -99.328125 Z M 57.34375 -56.0625 C 59.390625 -56.0625 60.921875 -57.59375 60.921875 -59.640625 C 60.921875 -61.703125 59.390625 -63.234375 57.34375 -63.234375 C 55.296875 -63.234375 53.765625 -61.703125 53.765625 -59.640625 C 53.765625 -57.59375 55.296875 -56.0625 57.34375 -56.0625 Z M 57.34375 -56.0625 "/>
</symbol>
<symbol overflow="visible" id="glyph0-4">
<path style="stroke:none;" d="M 22.78125 0 L 177.15625 0 L 177.15625 -56.0625 L 123.90625 -56.0625 C 122.625 -54.015625 120.3125 -52.484375 117.765625 -52.484375 C 113.921875 -52.484375 110.59375 -55.8125 110.59375 -59.640625 C 110.59375 -63.484375 113.921875 -66.8125 117.765625 -66.8125 C 120.3125 -66.8125 122.625 -65.28125 123.90625 -63.234375 L 160.765625 -63.234375 L 160.765625 -99.328125 L 123.140625 -99.328125 C 121.859375 -97.53125 120.0625 -96.25 117.765625 -96.25 C 114.4375 -96.25 111.609375 -99.078125 111.609375 -102.40625 C 111.609375 -105.734375 114.4375 -108.546875 117.765625 -108.546875 C 120.0625 -108.546875 121.859375 -107.265625 123.140625 -105.46875 L 168.953125 -105.46875 L 168.953125 -153.59375 L 11.265625 -153.59375 L 11.265625 -105.46875 L 51.96875 -105.46875 C 53.25 -107.265625 55.046875 -108.546875 57.34375 -108.546875 C 60.671875 -108.546875 63.484375 -105.734375 63.484375 -102.40625 C 63.484375 -99.078125 60.671875 -96.25 57.34375 -96.25 C 55.046875 -96.25 53.25 -97.53125 51.96875 -99.328125 L 22.53125 -99.328125 L 6.140625 -82.9375 L 6.140625 -16.640625 Z M 54.265625 -102.40625 C 54.265625 -100.609375 55.546875 -99.328125 57.34375 -99.328125 C 59.140625 -99.328125 60.421875 -100.609375 60.421875 -102.40625 C 60.421875 -104.1875 59.140625 -105.46875 57.34375 -105.46875 C 55.546875 -105.46875 54.265625 -104.1875 54.265625 -102.40625 Z M 114.6875 -102.40625 C 114.6875 -100.609375 115.96875 -99.328125 117.765625 -99.328125 C 119.546875 -99.328125 120.828125 -100.609375 120.828125 -102.40625 C 120.828125 -104.1875 119.546875 -105.46875 117.765625 -105.46875 C 115.96875 -105.46875 114.6875 -104.1875 114.6875 -102.40625 Z M 114.171875 -59.640625 C 114.171875 -57.59375 115.71875 -56.0625 117.765625 -56.0625 C 119.8125 -56.0625 121.34375 -57.59375 121.34375 -59.640625 C 121.34375 -61.703125 119.8125 -63.234375 117.765625 -63.234375 C 115.71875 -63.234375 114.171875 -61.703125 114.171875 -59.640625 Z M 40.703125 -49.65625 C 40.703125 -52.984375 43.515625 -55.8125 46.84375 -55.8125 C 49.15625 -55.8125 50.9375 -54.53125 52.21875 -52.734375 L 65.03125 -52.734375 C 66.296875 -54.53125 68.09375 -55.8125 70.40625 -55.8125 C 73.734375 -55.8125 76.546875 -52.984375 76.546875 -49.65625 C 76.546875 -46.34375 73.734375 -43.515625 70.40625 -43.515625 C 68.09375 -43.515625 66.296875 -44.796875 65.03125 -46.59375 L 52.21875 -46.59375 C 50.9375 -44.796875 49.15625 -43.515625 46.84375 -43.515625 C 43.515625 -43.515625 40.703125 -46.34375 40.703125 -49.65625 Z M 43.78125 -49.65625 C 43.78125 -47.875 45.0625 -46.59375 46.84375 -46.59375 C 48.640625 -46.59375 49.921875 -47.875 49.921875 -49.65625 C 49.921875 -51.453125 48.640625 -52.734375 46.84375 -52.734375 C 45.0625 -52.734375 43.78125 -51.453125 43.78125 -49.65625 Z M 67.328125 -49.65625 C 67.328125 -47.875 68.609375 -46.59375 70.40625 -46.59375 C 72.1875 -46.59375 73.46875 -47.875 73.46875 -49.65625 C 73.46875 -51.453125 72.1875 -52.734375 70.40625 -52.734375 C 68.609375 -52.734375 67.328125 -51.453125 67.328125 -49.65625 Z M 67.328125 -49.65625 "/>
</symbol>
<symbol overflow="visible" id="glyph0-5">
<path style="stroke:none;" d="M 6.140625 -153.59375 L 80.890625 -153.59375 L 97.28125 -137.21875 L 113.65625 -153.59375 L 188.421875 -153.59375 L 188.421875 0 L 100.359375 0 L 100.359375 -56.0625 L 128 -83.71875 C 130.046875 -83.203125 132.359375 -83.71875 133.890625 -85.25 C 136.1875 -87.546875 136.1875 -91.640625 133.890625 -93.953125 C 131.578125 -96.25 127.484375 -96.25 125.1875 -93.953125 C 123.640625 -92.421875 123.140625 -90.109375 123.640625 -88.0625 L 97.28125 -61.703125 L 70.90625 -88.0625 C 71.421875 -90.109375 70.90625 -92.421875 69.375 -93.953125 C 67.078125 -96.25 62.96875 -96.25 60.671875 -93.953125 C 58.375 -91.640625 58.375 -87.546875 60.671875 -85.25 C 62.203125 -83.71875 64.515625 -83.203125 66.5625 -83.71875 L 94.203125 -56.0625 L 94.203125 0 L 6.140625 0 Z M 61.953125 -89.59375 C 61.953125 -87.8125 63.234375 -86.53125 65.03125 -86.53125 C 66.8125 -86.53125 68.09375 -87.8125 68.09375 -89.59375 C 68.09375 -91.390625 66.8125 -92.671875 65.03125 -92.671875 C 63.234375 -92.671875 61.953125 -91.390625 61.953125 -89.59375 Z M 126.46875 -89.59375 C 126.46875 -87.8125 127.75 -86.53125 129.53125 -86.53125 C 131.328125 -86.53125 132.609375 -87.8125 132.609375 -89.59375 C 132.609375 -91.390625 131.328125 -92.671875 129.53125 -92.671875 C 127.75 -92.671875 126.46875 -91.390625 126.46875 -89.59375 Z M 126.46875 -89.59375 "/>
</symbol>
<symbol overflow="visible" id="glyph0-6">
<path style="stroke:none;" d="M 108.546875 -41.984375 L 108.546875 -111.609375 L 92.15625 -128 L 57.34375 -128 L 57.34375 -153.59375 L 6.140625 -153.59375 L 6.140625 0 L 57.34375 0 L 57.34375 -25.59375 L 92.15625 -25.59375 Z M 40.453125 -76.796875 C 40.453125 -80.125 43.265625 -82.9375 46.59375 -82.9375 C 48.890625 -82.9375 50.6875 -81.65625 51.96875 -79.875 L 64.25 -79.875 C 65.53125 -81.65625 67.328125 -82.9375 69.625 -82.9375 C 72.953125 -82.9375 75.78125 -80.125 75.78125 -76.796875 C 75.78125 -73.46875 72.953125 -70.65625 69.625 -70.65625 C 67.328125 -70.65625 65.53125 -71.9375 64.25 -73.734375 L 51.96875 -73.734375 C 50.6875 -71.9375 48.890625 -70.65625 46.59375 -70.65625 C 43.265625 -70.65625 40.453125 -73.46875 40.453125 -76.796875 Z M 46.59375 -73.734375 C 48.390625 -73.734375 49.65625 -75.015625 49.65625 -76.796875 C 49.65625 -78.59375 48.390625 -79.875 46.59375 -79.875 C 44.796875 -79.875 43.515625 -78.59375 43.515625 -76.796875 C 43.515625 -75.015625 44.796875 -73.734375 46.59375 -73.734375 Z M 69.625 -73.734375 C 71.421875 -73.734375 72.703125 -75.015625 72.703125 -76.796875 C 72.703125 -78.59375 71.421875 -79.875 69.625 -79.875 C 67.84375 -79.875 66.5625 -78.59375 66.5625 -76.796875 C 66.5625 -75.015625 67.84375 -73.734375 69.625 -73.734375 Z M 69.625 -73.734375 "/>
</symbol>
<symbol overflow="visible" id="glyph0-7">
<path style="stroke:none;" d="M 100.359375 0 L 116.734375 -16.390625 L 116.734375 -137.21875 L 100.359375 -153.59375 L 6.140625 -153.59375 L 6.140625 0 Z M 51.203125 -59.640625 C 51.203125 -61.953125 52.484375 -63.75 54.265625 -65.03125 L 54.265625 -97.03125 C 52.484375 -98.296875 51.203125 -100.09375 51.203125 -102.40625 C 51.203125 -105.734375 54.015625 -108.546875 57.34375 -108.546875 C 60.671875 -108.546875 63.484375 -105.734375 63.484375 -102.40625 C 63.484375 -100.09375 62.203125 -98.296875 60.421875 -97.03125 L 60.421875 -65.03125 C 62.203125 -63.75 63.484375 -61.953125 63.484375 -59.640625 C 63.484375 -56.3125 60.671875 -53.5 57.34375 -53.5 C 54.015625 -53.5 51.203125 -56.3125 51.203125 -59.640625 Z M 57.34375 -99.328125 C 59.140625 -99.328125 60.421875 -100.609375 60.421875 -102.40625 C 60.421875 -104.1875 59.140625 -105.46875 57.34375 -105.46875 C 55.546875 -105.46875 54.265625 -104.1875 54.265625 -102.40625 C 54.265625 -100.609375 55.546875 -99.328125 57.34375 -99.328125 Z M 57.34375 -56.0625 C 59.390625 -56.0625 60.921875 -57.59375 60.921875 -59.640625 C 60.921875 -61.703125 59.390625 -63.234375 57.34375 -63.234375 C 55.296875 -63.234375 53.765625 -61.703125 53.765625 -59.640625 C 53.765625 -57.59375 55.296875 -56.0625 57.34375 -56.0625 Z M 57.34375 -56.0625 "/>
</symbol>
<symbol overflow="visible" id="glyph0-8">
<path style="stroke:none;" d="M 108.546875 0 L 108.546875 -56.0625 L 61.703125 -56.0625 L 54.53125 -48.890625 C 54.78125 -48.390625 54.78125 -47.875 54.78125 -47.359375 C 54.78125 -44.03125 51.96875 -41.21875 48.640625 -41.21875 C 45.3125 -41.21875 42.5 -44.03125 42.5 -47.359375 C 42.5 -50.6875 45.3125 -53.5 48.640625 -53.5 C 49.15625 -53.5 49.65625 -53.5 50.171875 -53.25 L 57.34375 -60.421875 L 57.34375 -153.59375 L 6.140625 -153.59375 L 6.140625 0 Z M 45.5625 -47.359375 C 45.5625 -45.5625 46.84375 -44.28125 48.640625 -44.28125 C 50.4375 -44.28125 51.71875 -45.5625 51.71875 -47.359375 C 51.71875 -49.15625 50.4375 -50.4375 48.640625 -50.4375 C 46.84375 -50.4375 45.5625 -49.15625 45.5625 -47.359375 Z M 45.5625 -47.359375 "/>
</symbol>
<symbol overflow="visible" id="glyph0-9">
<path style="stroke:none;" d="M 64.515625 -58.625 C 66.296875 -57.34375 67.578125 -55.546875 67.578125 -53.25 C 67.578125 -49.921875 64.765625 -47.109375 61.4375 -47.109375 C 58.109375 -47.109375 55.296875 -49.921875 55.296875 -53.25 C 55.296875 -55.546875 56.578125 -57.34375 58.375 -58.625 L 58.375 -153.59375 L 6.140625 -153.59375 L 6.140625 -16.390625 L 22.53125 0 L 100.359375 0 L 116.734375 -16.390625 L 116.734375 -153.59375 L 64.515625 -153.59375 Z M 57.859375 -53.25 C 57.859375 -51.203125 59.390625 -49.65625 61.4375 -49.65625 C 63.484375 -49.65625 65.03125 -51.203125 65.03125 -53.25 C 65.03125 -55.296875 63.484375 -56.828125 61.4375 -56.828125 C 59.390625 -56.828125 57.859375 -55.296875 57.859375 -53.25 Z M 57.859375 -53.25 "/>
</symbol>
<symbol overflow="visible" id="glyph0-10">
<path style="stroke:none;" d="M 51.203125 0 L 51.203125 -47.109375 C 49.40625 -48.390625 48.125 -50.171875 48.125 -52.484375 C 48.125 -55.8125 50.9375 -58.625 54.265625 -58.625 C 57.59375 -58.625 60.421875 -55.8125 60.421875 -52.484375 C 60.421875 -50.171875 59.140625 -48.390625 57.34375 -47.109375 L 57.34375 0 L 108.546875 0 L 108.546875 -54.78125 L 92.15625 -71.171875 L 108.546875 -87.546875 L 108.546875 -137.21875 L 92.15625 -153.59375 L 6.140625 -153.59375 L 6.140625 0 Z M 40.453125 -107.515625 C 40.453125 -110.84375 43.265625 -113.65625 46.59375 -113.65625 C 48.890625 -113.65625 50.6875 -112.390625 51.96875 -110.59375 L 64.25 -110.59375 C 65.53125 -112.390625 67.328125 -113.65625 69.625 -113.65625 C 72.953125 -113.65625 75.78125 -110.84375 75.78125 -107.515625 C 75.78125 -104.1875 72.953125 -101.375 69.625 -101.375 C 67.328125 -101.375 65.53125 -102.65625 64.25 -104.453125 L 51.96875 -104.453125 C 50.6875 -102.65625 48.890625 -101.375 46.59375 -101.375 C 43.265625 -101.375 40.453125 -104.1875 40.453125 -107.515625 Z M 43.515625 -107.515625 C 43.515625 -105.734375 44.796875 -104.453125 46.59375 -104.453125 C 48.390625 -104.453125 49.65625 -105.734375 49.65625 -107.515625 C 49.65625 -109.3125 48.390625 -110.59375 46.59375 -110.59375 C 44.796875 -110.59375 43.515625 -109.3125 43.515625 -107.515625 Z M 66.5625 -107.515625 C 66.5625 -105.734375 67.84375 -104.453125 69.625 -104.453125 C 71.421875 -104.453125 72.703125 -105.734375 72.703125 -107.515625 C 72.703125 -109.3125 71.421875 -110.59375 69.625 -110.59375 C 67.84375 -110.59375 66.5625 -109.3125 66.5625 -107.515625 Z M 54.265625 -49.40625 C 56.0625 -49.40625 57.34375 -50.6875 57.34375 -52.484375 C 57.34375 -54.265625 56.0625 -55.546875 54.265625 -55.546875 C 52.484375 -55.546875 51.203125 -54.265625 51.203125 -52.484375 C 51.203125 -50.6875 52.484375 -49.40625 54.265625 -49.40625 Z M 54.265625 -49.40625 "/>
</symbol>
<symbol overflow="visible" id="glyph0-11">
<path style="stroke:none;" d="M 116.734375 0 L 116.734375 -68.609375 L 64.765625 -52.984375 C 64.25 -50.6875 62.46875 -48.390625 59.90625 -47.609375 C 56.3125 -46.59375 52.21875 -48.640625 50.9375 -52.484375 C 49.921875 -56.0625 51.96875 -60.15625 55.8125 -61.4375 C 58.109375 -62.203125 60.671875 -61.4375 62.71875 -59.90625 L 116.734375 -76.28125 L 116.734375 -153.59375 L 6.140625 -153.59375 L 6.140625 -86.78125 L 69.625 -106.234375 C 70.40625 -108.28125 71.6875 -110.078125 73.984375 -110.84375 C 77.0625 -111.875 80.640625 -110.078125 81.65625 -106.75 C 82.6875 -103.6875 80.890625 -100.09375 77.5625 -99.078125 C 75.515625 -98.296875 73.46875 -99.078125 71.6875 -100.359375 L 6.140625 -80.390625 L 6.140625 0 Z M 75.78125 -101.890625 C 77.5625 -101.890625 78.84375 -103.171875 78.84375 -104.953125 C 78.84375 -106.75 77.5625 -108.03125 75.78125 -108.03125 C 73.984375 -108.03125 72.703125 -106.75 72.703125 -104.953125 C 72.703125 -103.171875 73.984375 -101.890625 75.78125 -101.890625 Z M 57.859375 -50.9375 C 59.90625 -50.9375 61.4375 -52.484375 61.4375 -54.53125 C 61.4375 -56.578125 59.90625 -58.109375 57.859375 -58.109375 C 55.8125 -58.109375 54.265625 -56.578125 54.265625 -54.53125 C 54.265625 -52.484375 55.8125 -50.9375 57.859375 -50.9375 Z M 57.859375 -50.9375 "/>
</symbol>
<symbol overflow="visible" id="glyph0-12">
<path style="stroke:none;" d="M 22.53125 0 L 116.734375 0 L 116.734375 -137.21875 L 100.359375 -153.59375 L 22.53125 -153.59375 L 6.140625 -137.21875 L 6.140625 -16.390625 Z M 55.296875 -59.640625 C 55.296875 -61.953125 56.578125 -63.75 58.375 -65.03125 L 58.375 -97.03125 C 56.578125 -98.296875 55.296875 -100.09375 55.296875 -102.40625 C 55.296875 -105.734375 58.109375 -108.546875 61.4375 -108.546875 C 64.765625 -108.546875 67.578125 -105.734375 67.578125 -102.40625 C 67.578125 -100.09375 66.296875 -98.296875 64.515625 -97.03125 L 64.515625 -65.03125 C 66.296875 -63.75 67.578125 -61.953125 67.578125 -59.640625 C 67.578125 -59.140625 67.578125 -58.375 67.328125 -57.859375 L 87.8125 -37.375 C 88.3125 -37.625 89.09375 -37.625 89.59375 -37.625 C 92.921875 -37.625 95.75 -34.8125 95.75 -31.484375 C 95.75 -28.15625 92.921875 -25.34375 89.59375 -25.34375 C 86.265625 -25.34375 83.453125 -28.15625 83.453125 -31.484375 C 83.453125 -32 83.453125 -32.765625 83.71875 -33.28125 L 63.234375 -53.765625 C 62.71875 -53.5 61.953125 -53.5 61.4375 -53.5 C 58.109375 -53.5 55.296875 -56.3125 55.296875 -59.640625 Z M 58.375 -102.40625 C 58.375 -100.609375 59.640625 -99.328125 61.4375 -99.328125 C 63.234375 -99.328125 64.515625 -100.609375 64.515625 -102.40625 C 64.515625 -104.1875 63.234375 -105.46875 61.4375 -105.46875 C 59.640625 -105.46875 58.375 -104.1875 58.375 -102.40625 Z M 57.859375 -59.640625 C 57.859375 -57.59375 59.390625 -56.0625 61.4375 -56.0625 C 63.484375 -56.0625 65.03125 -57.59375 65.03125 -59.640625 C 65.03125 -61.703125 63.484375 -63.234375 61.4375 -63.234375 C 59.390625 -63.234375 57.859375 -61.703125 57.859375 -59.640625 Z M 86.015625 -31.484375 C 86.015625 -29.4375 87.546875 -27.90625 89.59375 -27.90625 C 91.640625 -27.90625 93.1875 -29.4375 93.1875 -31.484375 C 93.1875 -33.53125 91.640625 -35.078125 89.59375 -35.078125 C 87.546875 -35.078125 86.015625 -33.53125 86.015625 -31.484375 Z M 86.015625 -31.484375 "/>
</symbol>
<symbol overflow="visible" id="glyph0-13">
<path style="stroke:none;" d="M 22.53125 0 L 116.734375 0 L 116.734375 -79.875 L 64.515625 -79.875 L 64.515625 -52.734375 L 66.5625 -50.6875 L 76.03125 -50.6875 C 77.3125 -52.484375 79.109375 -53.765625 81.40625 -53.765625 C 84.734375 -53.765625 87.546875 -50.9375 87.546875 -47.609375 C 87.546875 -44.28125 84.734375 -41.46875 81.40625 -41.46875 C 79.109375 -41.46875 77.3125 -42.75 76.03125 -44.546875 L 64 -44.546875 L 58.375 -50.171875 L 58.375 -102.140625 C 56.578125 -103.421875 55.296875 -105.21875 55.296875 -107.515625 C 55.296875 -110.84375 58.109375 -113.65625 61.4375 -113.65625 C 64.765625 -113.65625 67.578125 -110.84375 67.578125 -107.515625 C 67.578125 -105.21875 66.296875 -103.421875 64.515625 -102.140625 L 64.515625 -86.015625 L 116.734375 -86.015625 L 116.734375 -137.21875 L 100.359375 -153.59375 L 22.53125 -153.59375 L 6.140625 -137.21875 L 6.140625 -16.390625 Z M 58.375 -107.515625 C 58.375 -105.734375 59.640625 -104.453125 61.4375 -104.453125 C 63.234375 -104.453125 64.515625 -105.734375 64.515625 -107.515625 C 64.515625 -109.3125 63.234375 -110.59375 61.4375 -110.59375 C 59.640625 -110.59375 58.375 -109.3125 58.375 -107.515625 Z M 77.828125 -47.609375 C 77.828125 -45.5625 79.359375 -44.03125 81.40625 -44.03125 C 83.453125 -44.03125 84.984375 -45.5625 84.984375 -47.609375 C 84.984375 -49.65625 83.453125 -51.203125 81.40625 -51.203125 C 79.359375 -51.203125 77.828125 -49.65625 77.828125 -47.609375 Z M 77.828125 -47.609375 "/>
</symbol>
<symbol overflow="visible" id="glyph0-14">
<path style="stroke:none;" d="M 87.046875 0 L 87.046875 -105.46875 L 116.734375 -105.46875 L 116.734375 -153.59375 L 6.140625 -153.59375 L 6.140625 -105.46875 L 35.84375 -105.46875 L 35.84375 0 Z M 87.046875 0 "/>
</symbol>
<symbol overflow="visible" id="glyph0-15">
<path style="stroke:none;" d="M 58.375 0 L 58.375 -36.09375 C 56.578125 -37.375 55.296875 -39.171875 55.296875 -41.46875 C 55.296875 -44.796875 58.109375 -47.609375 61.4375 -47.609375 C 64.765625 -47.609375 67.578125 -44.796875 67.578125 -41.46875 C 67.578125 -39.171875 66.296875 -37.375 64.515625 -36.09375 L 64.515625 0 L 116.734375 0 L 116.734375 -65.03125 L 100.359375 -81.40625 L 116.734375 -97.796875 L 116.734375 -153.59375 L 64.515625 -153.59375 L 64.515625 -117.5 C 66.296875 -116.21875 67.578125 -114.4375 67.578125 -112.125 C 67.578125 -108.796875 64.765625 -105.984375 61.4375 -105.984375 C 58.109375 -105.984375 55.296875 -108.796875 55.296875 -112.125 C 55.296875 -114.4375 56.578125 -116.21875 58.375 -117.5 L 58.375 -153.59375 L 6.140625 -153.59375 L 6.140625 -97.796875 L 22.53125 -81.40625 L 6.140625 -65.03125 L 6.140625 0 Z M 58.375 -112.125 C 58.375 -110.34375 59.640625 -109.0625 61.4375 -109.0625 C 63.234375 -109.0625 64.515625 -110.34375 64.515625 -112.125 C 64.515625 -113.921875 63.234375 -115.203125 61.4375 -115.203125 C 59.640625 -115.203125 58.375 -113.921875 58.375 -112.125 Z M 58.375 -41.46875 C 58.375 -39.6875 59.640625 -38.40625 61.4375 -38.40625 C 63.234375 -38.40625 64.515625 -39.6875 64.515625 -41.46875 C 64.515625 -43.265625 63.234375 -44.546875 61.4375 -44.546875 C 59.640625 -44.546875 58.375 -43.265625 58.375 -41.46875 Z M 58.375 -41.46875 "/>
</symbol>
<symbol overflow="visible" id="glyph0-16">
<path style="stroke:none;" d="M 100.359375 0 L 116.734375 -16.390625 L 116.734375 -137.21875 L 100.359375 -153.59375 L 22.53125 -153.59375 L 6.140625 -137.21875 L 6.140625 -16.390625 L 22.53125 0 Z M 55.296875 -59.640625 C 55.296875 -61.953125 56.578125 -63.75 58.375 -65.03125 L 58.375 -97.03125 C 56.578125 -98.296875 55.296875 -100.09375 55.296875 -102.40625 C 55.296875 -105.734375 58.109375 -108.546875 61.4375 -108.546875 C 64.765625 -108.546875 67.578125 -105.734375 67.578125 -102.40625 C 67.578125 -100.09375 66.296875 -98.296875 64.515625 -97.03125 L 64.515625 -65.03125 C 66.296875 -63.75 67.578125 -61.953125 67.578125 -59.640625 C 67.578125 -56.3125 64.765625 -53.5 61.4375 -53.5 C 58.109375 -53.5 55.296875 -56.3125 55.296875 -59.640625 Z M 61.4375 -99.328125 C 63.234375 -99.328125 64.515625 -100.609375 64.515625 -102.40625 C 64.515625 -104.1875 63.234375 -105.46875 61.4375 -105.46875 C 59.640625 -105.46875 58.375 -104.1875 58.375 -102.40625 C 58.375 -100.609375 59.640625 -99.328125 61.4375 -99.328125 Z M 61.4375 -56.0625 C 63.484375 -56.0625 65.03125 -57.59375 65.03125 -59.640625 C 65.03125 -61.703125 63.484375 -63.234375 61.4375 -63.234375 C 59.390625 -63.234375 57.859375 -61.703125 57.859375 -59.640625 C 57.859375 -57.59375 59.390625 -56.0625 61.4375 -56.0625 Z M 61.4375 -56.0625 "/>
</symbol>
<symbol overflow="visible" id="glyph0-17">
<path style="stroke:none;" d="M 108.546875 0 L 108.546875 -137.21875 L 92.15625 -153.59375 L 11.265625 -153.59375 L 11.265625 -105.46875 L 51.96875 -105.46875 C 53.25 -107.265625 55.046875 -108.546875 57.34375 -108.546875 C 60.671875 -108.546875 63.484375 -105.734375 63.484375 -102.40625 C 63.484375 -99.078125 60.671875 -96.25 57.34375 -96.25 C 55.046875 -96.25 53.25 -97.53125 51.96875 -99.328125 L 22.53125 -99.328125 L 6.140625 -82.9375 L 6.140625 -16.640625 L 22.78125 0 Z M 54.265625 -102.40625 C 54.265625 -100.609375 55.546875 -99.328125 57.34375 -99.328125 C 59.140625 -99.328125 60.421875 -100.609375 60.421875 -102.40625 C 60.421875 -104.1875 59.140625 -105.46875 57.34375 -105.46875 C 55.546875 -105.46875 54.265625 -104.1875 54.265625 -102.40625 Z M 40.703125 -49.65625 C 40.703125 -52.984375 43.515625 -55.8125 46.84375 -55.8125 C 49.15625 -55.8125 50.9375 -54.53125 52.21875 -52.734375 L 65.03125 -52.734375 C 66.296875 -54.53125 68.09375 -55.8125 70.40625 -55.8125 C 73.734375 -55.8125 76.546875 -52.984375 76.546875 -49.65625 C 76.546875 -46.34375 73.734375 -43.515625 70.40625 -43.515625 C 68.09375 -43.515625 66.296875 -44.796875 65.03125 -46.59375 L 52.21875 -46.59375 C 50.9375 -44.796875 49.15625 -43.515625 46.84375 -43.515625 C 43.515625 -43.515625 40.703125 -46.34375 40.703125 -49.65625 Z M 43.78125 -49.65625 C 43.78125 -47.875 45.0625 -46.59375 46.84375 -46.59375 C 48.640625 -46.59375 49.921875 -47.875 49.921875 -49.65625 C 49.921875 -51.453125 48.640625 -52.734375 46.84375 -52.734375 C 45.0625 -52.734375 43.78125 -51.453125 43.78125 -49.65625 Z M 67.328125 -49.65625 C 67.328125 -47.875 68.609375 -46.59375 70.40625 -46.59375 C 72.1875 -46.59375 73.46875 -47.875 73.46875 -49.65625 C 73.46875 -51.453125 72.1875 -52.734375 70.40625 -52.734375 C 68.609375 -52.734375 67.328125 -51.453125 67.328125 -49.65625 Z M 67.328125 -49.65625 "/>
</symbol>
<symbol overflow="visible" id="glyph0-18">
<path style="stroke:none;" d="M 92.15625 0 L 108.546875 -16.390625 L 108.546875 -153.59375 L 60.421875 -153.59375 L 60.421875 -106.5 C 62.203125 -105.21875 63.484375 -103.421875 63.484375 -101.125 C 63.484375 -97.796875 60.671875 -94.96875 57.34375 -94.96875 C 54.015625 -94.96875 51.203125 -97.796875 51.203125 -101.125 C 51.203125 -103.421875 52.484375 -105.21875 54.265625 -106.5 L 54.265625 -153.59375 L 6.140625 -153.59375 L 6.140625 -67.84375 L 19.71875 -54.265625 L 51.96875 -54.265625 C 53.25 -56.0625 55.046875 -57.34375 57.34375 -57.34375 C 60.671875 -57.34375 63.484375 -54.53125 63.484375 -51.203125 C 63.484375 -47.875 60.671875 -45.0625 57.34375 -45.0625 C 55.046875 -45.0625 53.25 -46.34375 51.96875 -48.125 L 6.140625 -48.125 L 6.140625 0 Z M 54.265625 -101.125 C 54.265625 -99.328125 55.546875 -98.046875 57.34375 -98.046875 C 59.140625 -98.046875 60.421875 -99.328125 60.421875 -101.125 C 60.421875 -102.90625 59.140625 -104.1875 57.34375 -104.1875 C 55.546875 -104.1875 54.265625 -102.90625 54.265625 -101.125 Z M 57.34375 -48.125 C 59.140625 -48.125 60.421875 -49.40625 60.421875 -51.203125 C 60.421875 -52.984375 59.140625 -54.265625 57.34375 -54.265625 C 55.546875 -54.265625 54.265625 -52.984375 54.265625 -51.203125 C 54.265625 -49.40625 55.546875 -48.125 57.34375 -48.125 Z M 57.34375 -48.125 "/>
</symbol>
<symbol overflow="visible" id="glyph0-19">
<path style="stroke:none;" d="M 54.53125 0 L 38.90625 -45.0625 C 36.859375 -45.828125 35.078125 -47.109375 34.296875 -49.15625 C 33.28125 -52.484375 35.078125 -55.8125 38.140625 -57.09375 C 41.46875 -58.109375 45.0625 -56.3125 46.078125 -53.25 C 46.84375 -50.9375 46.078125 -48.890625 44.796875 -47.109375 L 61.1875 0 L 108.546875 0 L 108.546875 -153.59375 L 60.671875 -153.59375 L 75.265625 -116.984375 C 77.5625 -116.484375 79.359375 -115.203125 80.125 -113.15625 C 81.40625 -110.078125 79.875 -106.5 76.796875 -105.21875 C 73.734375 -103.9375 70.140625 -105.46875 68.859375 -108.546875 C 67.84375 -110.59375 68.359375 -112.890625 69.625 -114.6875 L 54.265625 -153.59375 L 6.140625 -153.59375 L 6.140625 0 Z M 71.421875 -110.84375 C 71.421875 -109.0625 72.703125 -107.78125 74.5 -107.78125 C 76.28125 -107.78125 77.5625 -109.0625 77.5625 -110.84375 C 77.5625 -112.640625 76.28125 -113.921875 74.5 -113.921875 C 72.703125 -113.921875 71.421875 -112.640625 71.421875 -110.84375 Z M 37.125 -51.203125 C 37.125 -49.40625 38.40625 -48.125 40.1875 -48.125 C 41.984375 -48.125 43.265625 -49.40625 43.265625 -51.203125 C 43.265625 -52.984375 41.984375 -54.265625 40.1875 -54.265625 C 38.40625 -54.265625 37.125 -52.984375 37.125 -51.203125 Z M 37.125 -51.203125 "/>
</symbol>
<symbol overflow="visible" id="glyph0-20">
<path style="stroke:none;" d="M 108.546875 0 L 116.734375 -8.1875 L 116.734375 -93.1875 L 53.765625 -113.15625 C 51.96875 -111.875 49.921875 -111.109375 47.875 -111.875 C 44.546875 -112.890625 42.75 -116.484375 43.78125 -119.546875 C 44.796875 -122.875 48.390625 -124.671875 51.453125 -123.640625 C 53.765625 -122.875 55.046875 -121.09375 55.8125 -119.046875 L 108.546875 -102.140625 L 108.546875 -153.59375 L 14.59375 -153.59375 L 6.140625 -145.15625 L 6.140625 -73.734375 L 57.59375 -57.34375 C 59.640625 -58.875 62.203125 -59.640625 64.515625 -58.875 C 68.359375 -57.59375 70.40625 -53.5 69.375 -49.921875 C 68.09375 -46.078125 64 -44.03125 60.421875 -45.0625 C 57.859375 -45.828125 56.0625 -48.125 55.546875 -50.4375 L 6.140625 -66.046875 L 6.140625 0 Z M 46.59375 -117.765625 C 46.59375 -115.96875 47.875 -114.6875 49.65625 -114.6875 C 51.453125 -114.6875 52.734375 -115.96875 52.734375 -117.765625 C 52.734375 -119.546875 51.453125 -120.828125 49.65625 -120.828125 C 47.875 -120.828125 46.59375 -119.546875 46.59375 -117.765625 Z M 58.875 -51.96875 C 58.875 -49.921875 60.421875 -48.390625 62.46875 -48.390625 C 64.515625 -48.390625 66.046875 -49.921875 66.046875 -51.96875 C 66.046875 -54.015625 64.515625 -55.546875 62.46875 -55.546875 C 60.421875 -55.546875 58.875 -54.015625 58.875 -51.96875 Z M 58.875 -51.96875 "/>
</symbol>
<symbol overflow="visible" id="glyph0-21">
<path style="stroke:none;" d="M 100.359375 0 L 116.734375 -16.390625 L 116.734375 -65.28125 L 100.359375 -81.921875 L 108.546875 -90.109375 L 108.546875 -137.21875 L 92.15625 -153.59375 L 6.140625 -153.59375 L 6.140625 0 Z M 43.515625 -98.8125 C 40.1875 -98.8125 37.375 -101.625 37.375 -104.953125 C 37.375 -108.28125 40.1875 -111.109375 43.515625 -111.109375 C 45.828125 -111.109375 47.609375 -109.828125 48.890625 -108.03125 L 68.859375 -108.03125 C 70.140625 -109.828125 71.9375 -111.109375 74.234375 -111.109375 C 77.5625 -111.109375 80.390625 -108.28125 80.390625 -104.953125 C 80.390625 -101.625 77.5625 -98.8125 74.234375 -98.8125 C 71.9375 -98.8125 70.140625 -100.09375 68.859375 -101.890625 L 48.890625 -101.890625 C 47.609375 -100.09375 45.828125 -98.8125 43.515625 -98.8125 Z M 43.515625 -101.890625 C 45.3125 -101.890625 46.59375 -103.171875 46.59375 -104.953125 C 46.59375 -106.75 45.3125 -108.03125 43.515625 -108.03125 C 41.734375 -108.03125 40.453125 -106.75 40.453125 -104.953125 C 40.453125 -103.171875 41.734375 -101.890625 43.515625 -101.890625 Z M 74.234375 -101.890625 C 76.03125 -101.890625 77.3125 -103.171875 77.3125 -104.953125 C 77.3125 -106.75 76.03125 -108.03125 74.234375 -108.03125 C 72.453125 -108.03125 71.171875 -106.75 71.171875 -104.953125 C 71.171875 -103.171875 72.453125 -101.890625 74.234375 -101.890625 Z M 44.03125 -44.03125 C 40.1875 -44.03125 36.859375 -47.359375 36.859375 -51.203125 C 36.859375 -55.046875 40.1875 -58.375 44.03125 -58.375 C 46.59375 -58.375 48.890625 -56.828125 50.171875 -54.78125 L 78.84375 -54.78125 C 80.125 -56.828125 82.4375 -58.375 84.984375 -58.375 C 88.828125 -58.375 92.15625 -55.046875 92.15625 -51.203125 C 92.15625 -47.359375 88.828125 -44.03125 84.984375 -44.03125 C 82.4375 -44.03125 80.125 -45.5625 78.84375 -47.609375 L 50.171875 -47.609375 C 48.890625 -45.5625 46.59375 -44.03125 44.03125 -44.03125 Z M 44.03125 -47.609375 C 46.078125 -47.609375 47.609375 -49.15625 47.609375 -51.203125 C 47.609375 -53.25 46.078125 -54.78125 44.03125 -54.78125 C 41.984375 -54.78125 40.453125 -53.25 40.453125 -51.203125 C 40.453125 -49.15625 41.984375 -47.609375 44.03125 -47.609375 Z M 84.984375 -47.609375 C 87.046875 -47.609375 88.578125 -49.15625 88.578125 -51.203125 C 88.578125 -53.25 87.046875 -54.78125 84.984375 -54.78125 C 82.9375 -54.78125 81.40625 -53.25 81.40625 -51.203125 C 81.40625 -49.15625 82.9375 -47.609375 84.984375 -47.609375 Z M 84.984375 -47.609375 "/>
</symbol>
<symbol overflow="visible" id="glyph0-22">
<path style="stroke:none;" d="M 193.53125 -153.59375 L 193.53125 -17.15625 L 176.390625 0 L 116.21875 0 L 99.84375 -16.390625 L 83.453125 0 L 23.296875 0 L 6.140625 -17.15625 L 6.140625 -153.59375 L 74.234375 -153.59375 L 54.265625 -103.171875 C 51.96875 -102.65625 50.171875 -101.375 49.40625 -99.328125 C 48.125 -96.25 49.65625 -92.671875 52.734375 -91.390625 C 55.8125 -90.109375 59.390625 -91.640625 60.671875 -94.71875 C 61.703125 -96.765625 61.1875 -99.078125 59.90625 -100.859375 L 80.640625 -153.59375 L 119.046875 -153.59375 L 139.78125 -100.859375 C 138.5 -99.078125 137.984375 -96.765625 139.015625 -94.71875 C 140.28125 -91.640625 143.875 -90.109375 146.9375 -91.390625 C 150.015625 -92.671875 151.546875 -96.25 150.265625 -99.328125 C 149.5 -101.375 147.71875 -102.65625 145.40625 -103.171875 L 125.4375 -153.59375 Z M 58.109375 -97.03125 C 58.109375 -98.8125 56.828125 -100.09375 55.046875 -100.09375 C 53.25 -100.09375 51.96875 -98.8125 51.96875 -97.03125 C 51.96875 -95.234375 53.25 -93.953125 55.046875 -93.953125 C 56.828125 -93.953125 58.109375 -95.234375 58.109375 -97.03125 Z M 147.71875 -97.03125 C 147.71875 -98.8125 146.4375 -100.09375 144.640625 -100.09375 C 142.84375 -100.09375 141.5625 -98.8125 141.5625 -97.03125 C 141.5625 -95.234375 142.84375 -93.953125 144.640625 -93.953125 C 146.4375 -93.953125 147.71875 -95.234375 147.71875 -97.03125 Z M 147.71875 -97.03125 "/>
</symbol>
<symbol overflow="visible" id="glyph0-23">
<path style="stroke:none;" d="M 54.265625 0 L 54.265625 -52.21875 C 52.484375 -53.5 51.203125 -55.296875 51.203125 -57.59375 C 51.203125 -60.921875 54.015625 -63.75 57.34375 -63.75 C 60.671875 -63.75 63.484375 -60.921875 63.484375 -57.59375 C 63.484375 -55.296875 62.203125 -53.5 60.421875 -52.21875 L 60.421875 0 L 108.546875 0 L 108.546875 -153.59375 L 60.421875 -153.59375 L 60.421875 -109.0625 C 62.203125 -107.78125 63.484375 -105.984375 63.484375 -103.6875 C 63.484375 -100.359375 60.671875 -97.53125 57.34375 -97.53125 C 54.015625 -97.53125 51.203125 -100.359375 51.203125 -103.6875 C 51.203125 -105.984375 52.484375 -107.78125 54.265625 -109.0625 L 54.265625 -153.59375 L 6.140625 -153.59375 L 6.140625 0 Z M 54.265625 -103.6875 C 54.265625 -101.890625 55.546875 -100.609375 57.34375 -100.609375 C 59.140625 -100.609375 60.421875 -101.890625 60.421875 -103.6875 C 60.421875 -105.46875 59.140625 -106.75 57.34375 -106.75 C 55.546875 -106.75 54.265625 -105.46875 54.265625 -103.6875 Z M 54.265625 -57.59375 C 54.265625 -55.8125 55.546875 -54.53125 57.34375 -54.53125 C 59.140625 -54.53125 60.421875 -55.8125 60.421875 -57.59375 C 60.421875 -59.390625 59.140625 -60.671875 57.34375 -60.671875 C 55.546875 -60.671875 54.265625 -59.390625 54.265625 -57.59375 Z M 54.265625 -57.59375 "/>
</symbol>
<symbol overflow="visible" id="glyph0-24">
<path style="stroke:none;" d="M 28.671875 -51.203125 L 28.671875 0 L 122.875 0 L 139.265625 -16.390625 L 139.265625 -137.21875 L 122.875 -153.59375 L 28.671875 -153.59375 L 28.671875 -102.40625 L 3.078125 -102.40625 L 3.078125 -51.203125 Z M 62.71875 -51.203125 C 62.71875 -54.53125 65.53125 -57.34375 68.859375 -57.34375 C 71.171875 -57.34375 72.953125 -56.0625 74.234375 -54.265625 L 80.890625 -54.265625 L 80.890625 -99.328125 L 74.234375 -99.328125 C 72.953125 -97.53125 71.171875 -96.25 68.859375 -96.25 C 65.53125 -96.25 62.71875 -99.078125 62.71875 -102.40625 C 62.71875 -105.734375 65.53125 -108.546875 68.859375 -108.546875 C 71.171875 -108.546875 72.953125 -107.265625 74.234375 -105.46875 L 87.046875 -105.46875 L 87.046875 -48.125 L 74.234375 -48.125 C 72.953125 -46.34375 71.171875 -45.0625 68.859375 -45.0625 C 65.53125 -45.0625 62.71875 -47.875 62.71875 -51.203125 Z M 65.796875 -102.40625 C 65.796875 -100.609375 67.078125 -99.328125 68.859375 -99.328125 C 70.65625 -99.328125 71.9375 -100.609375 71.9375 -102.40625 C 71.9375 -104.1875 70.65625 -105.46875 68.859375 -105.46875 C 67.078125 -105.46875 65.796875 -104.1875 65.796875 -102.40625 Z M 65.796875 -51.203125 C 65.796875 -49.40625 67.078125 -48.125 68.859375 -48.125 C 70.65625 -48.125 71.9375 -49.40625 71.9375 -51.203125 C 71.9375 -52.984375 70.65625 -54.265625 68.859375 -54.265625 C 67.078125 -54.265625 65.796875 -52.984375 65.796875 -51.203125 Z M 65.796875 -51.203125 "/>
</symbol>
<symbol overflow="visible" id="glyph0-25">
<path style="stroke:none;" d="M 31.75 -150.015625 C 33.796875 -150.015625 35.328125 -151.546875 35.328125 -153.59375 C 35.328125 -155.640625 33.796875 -157.1875 31.75 -157.1875 C 29.703125 -157.1875 28.15625 -155.640625 28.15625 -153.59375 C 28.15625 -151.546875 29.703125 -150.015625 31.75 -150.015625 Z M 57.34375 0 L 57.34375 -153.59375 L 38.90625 -153.59375 C 38.90625 -149.765625 35.578125 -146.4375 31.75 -146.4375 C 27.90625 -146.4375 24.578125 -149.765625 24.578125 -153.59375 L 6.140625 -153.59375 L 6.140625 0 Z M 57.34375 0 "/>
</symbol>
<symbol overflow="visible" id="glyph0-26">
<path style="stroke:none;" d="M 57.34375 0 L 57.34375 -60.921875 L 100.359375 -60.921875 L 100.359375 -99.328125 L 62.71875 -99.328125 C 61.4375 -97.53125 59.640625 -96.25 57.34375 -96.25 C 54.015625 -96.25 51.203125 -99.078125 51.203125 -102.40625 C 51.203125 -105.734375 54.015625 -108.546875 57.34375 -108.546875 C 59.640625 -108.546875 61.4375 -107.265625 62.71875 -105.46875 L 108.546875 -105.46875 L 108.546875 -153.59375 L 6.140625 -153.59375 L 6.140625 0 Z M 57.34375 -99.328125 C 59.140625 -99.328125 60.421875 -100.609375 60.421875 -102.40625 C 60.421875 -104.1875 59.140625 -105.46875 57.34375 -105.46875 C 55.546875 -105.46875 54.265625 -104.1875 54.265625 -102.40625 C 54.265625 -100.609375 55.546875 -99.328125 57.34375 -99.328125 Z M 57.34375 -99.328125 "/>
</symbol>
<symbol overflow="visible" id="glyph0-27">
<path style="stroke:none;" d="M 62.46875 -63.75 C 64.25 -62.46875 65.53125 -60.671875 65.53125 -58.375 C 65.53125 -55.046875 62.71875 -52.21875 59.390625 -52.21875 C 56.0625 -52.21875 53.25 -55.046875 53.25 -58.375 C 53.25 -60.671875 54.53125 -62.46875 56.3125 -63.75 L 56.3125 -153.59375 L 6.140625 -153.59375 L 6.140625 0 L 57.34375 0 L 112.640625 -55.296875 L 112.640625 -153.59375 L 62.46875 -153.59375 Z M 55.8125 -58.375 C 55.8125 -56.3125 57.34375 -54.78125 59.390625 -54.78125 C 61.4375 -54.78125 62.96875 -56.3125 62.96875 -58.375 C 62.96875 -60.421875 61.4375 -61.953125 59.390625 -61.953125 C 57.34375 -61.953125 55.8125 -60.421875 55.8125 -58.375 Z M 55.8125 -58.375 "/>
</symbol>
<symbol overflow="visible" id="glyph0-28">
<path style="stroke:none;" d="M 108.546875 -67.578125 L 108.546875 -137.21875 L 92.15625 -153.59375 L 6.140625 -153.59375 L 6.140625 0 L 57.34375 0 L 57.34375 -51.203125 L 92.15625 -51.203125 Z M 40.453125 -102.40625 C 40.453125 -105.734375 43.265625 -108.546875 46.59375 -108.546875 C 48.890625 -108.546875 50.6875 -107.265625 51.96875 -105.46875 L 64.25 -105.46875 C 65.53125 -107.265625 67.328125 -108.546875 69.625 -108.546875 C 72.953125 -108.546875 75.78125 -105.734375 75.78125 -102.40625 C 75.78125 -99.078125 72.953125 -96.25 69.625 -96.25 C 67.328125 -96.25 65.53125 -97.53125 64.25 -99.328125 L 51.96875 -99.328125 C 50.6875 -97.53125 48.890625 -96.25 46.59375 -96.25 C 43.265625 -96.25 40.453125 -99.078125 40.453125 -102.40625 Z M 46.59375 -99.328125 C 48.390625 -99.328125 49.65625 -100.609375 49.65625 -102.40625 C 49.65625 -104.1875 48.390625 -105.46875 46.59375 -105.46875 C 44.796875 -105.46875 43.515625 -104.1875 43.515625 -102.40625 C 43.515625 -100.609375 44.796875 -99.328125 46.59375 -99.328125 Z M 69.625 -99.328125 C 71.421875 -99.328125 72.703125 -100.609375 72.703125 -102.40625 C 72.703125 -104.1875 71.421875 -105.46875 69.625 -105.46875 C 67.84375 -105.46875 66.5625 -104.1875 66.5625 -102.40625 C 66.5625 -100.609375 67.84375 -99.328125 69.625 -99.328125 Z M 69.625 -99.328125 "/>
</symbol>
<symbol overflow="visible" id="glyph0-29">
<path style="stroke:none;" d="M 6.140625 -16.390625 L 22.53125 0 L 100.359375 0 L 116.734375 -16.390625 L 116.734375 -153.59375 L 36.859375 -153.59375 L 36.859375 -105.46875 L 56.0625 -105.46875 C 57.34375 -107.265625 59.140625 -108.546875 61.4375 -108.546875 C 64.765625 -108.546875 67.578125 -105.734375 67.578125 -102.40625 C 67.578125 -100.09375 66.296875 -98.296875 64.515625 -97.03125 L 64.515625 -65.03125 C 66.296875 -63.75 67.578125 -61.953125 67.578125 -59.640625 C 67.578125 -56.3125 64.765625 -53.5 61.4375 -53.5 C 58.109375 -53.5 55.296875 -56.3125 55.296875 -59.640625 C 55.296875 -61.953125 56.578125 -63.75 58.375 -65.03125 L 58.375 -81.921875 L 6.140625 -73.734375 Z M 58.375 -102.40625 C 58.375 -100.609375 59.640625 -99.328125 61.4375 -99.328125 C 63.234375 -99.328125 64.515625 -100.609375 64.515625 -102.40625 C 64.515625 -104.1875 63.234375 -105.46875 61.4375 -105.46875 C 59.640625 -105.46875 58.375 -104.1875 58.375 -102.40625 Z M 57.859375 -59.640625 C 57.859375 -57.59375 59.390625 -56.0625 61.4375 -56.0625 C 63.484375 -56.0625 65.03125 -57.59375 65.03125 -59.640625 C 65.03125 -61.703125 63.484375 -63.234375 61.4375 -63.234375 C 59.390625 -63.234375 57.859375 -61.703125 57.859375 -59.640625 Z M 57.859375 -59.640625 "/>
</symbol>
</g>
</defs>
<g id="surface1">
<rect x="0" y="0" width="884.984375" height="956.8125" style="fill:rgb(20%,80%,93.333333%);fill-opacity:1;stroke:none;"/>
<g style="fill:rgb(0%,0%,0%);fill-opacity:1;">
  <use xlink:href="#glyph0-1" x="16" y="220.796875"/>
  <use xlink:href="#glyph0-2" x="130.6875" y="220.796875"/>
  <use xlink:href="#glyph0-3" x="253.5625" y="220.796875"/>
  <use xlink:href="#glyph0-4" x="376.4375" y="220.796875"/>
  <use xlink:href="#glyph0-5" x="559.734375" y="220.796875"/>
  <use xlink:href="#glyph0-6" x="754.296875" y="220.796875"/>
</g>
<g style="fill:rgb(0%,0%,0%);fill-opacity:1;">
  <use xlink:href="#glyph0-7" x="16" y="388"/>
  <use xlink:href="#glyph0-8" x="138.875" y="388"/>
  <use xlink:href="#glyph0-9" x="253.5625" y="388"/>
  <use xlink:href="#glyph0-10" x="376.4375" y="388"/>
  <use xlink:href="#glyph0-11" x="491.125" y="388"/>
  <use xlink:href="#glyph0-12" x="614" y="388"/>
</g>
<g style="fill:rgb(0%,0%,0%);fill-opacity:1;">
  <use xlink:href="#glyph0-13" x="16" y="555.203125"/>
  <use xlink:href="#glyph0-14" x="138.875" y="555.203125"/>
  <use xlink:href="#glyph0-15" x="261.75" y="555.203125"/>
  <use xlink:href="#glyph0-16" x="384.625" y="555.203125"/>
  <use xlink:href="#glyph0-17" x="507.5" y="555.203125"/>
  <use xlink:href="#glyph0-18" x="622.1875" y="555.203125"/>
</g>
<g style="fill:rgb(0%,0%,0%);fill-opacity:1;">
  <use xlink:href="#glyph0-19" x="16" y="722.40625"/>
  <use xlink:href="#glyph0-20" x="130.6875" y="722.40625"/>
  <use xlink:href="#glyph0-21" x="253.5625" y="722.40625"/>
  <use xlink:href="#glyph0-22" x="376.4375" y="722.40625"/>
  <use xlink:href="#glyph0-23" x="576.375" y="722.40625"/>
  <use xlink:href="#glyph0-24" x="691.0625" y="722.40625"/>
</g>
<g style="fill:rgb(0%,0%,0%);fill-opacity:1;">
  <use xlink:href="#glyph0-25" x="16" y="889.609375"/>
  <use xlink:href="#glyph0-26" x="79.484375" y="889.609375"/>
  <use xlink:href="#glyph0-27" x="194.171875" y="889.609375"/>
  <use xlink:href="#glyph0-28" x="317.046875" y="889.609375"/>
  <use xlink:href="#glyph0-29" x="431.734375" y="889.609375"/>
</g>
</g>
</svg>
